^C:\USERS\DYLLAN\DOCUMENTS\VISUAL STUDIO 2015\PROJECTS\ACTIVITY_CIRCLECIRCLE\ACTIVITY_CIRCLECIRCLE\DEBUG\SOURCE.OBJ
C:\USERS\DYLLAN\DOCUMENTS\VISUAL STUDIO 2015\PROJECTS\ACTIVITY_CIRCLECIRCLE\DEBUG\ACTIVITY_CIRCLECIRCLE.ILK
C:\USERS\DYLLAN\DOCUMENTS\VISUAL STUDIO 2015\PROJECTS\ACTIVITY_CIRCLECIRCLE\DEBUG\ACTIVITY_CIRCLECIRCLE.EXE
C:\USERS\DYLLAN\DOCUMENTS\VISUAL STUDIO 2015\PROJECTS\ACTIVITY_CIRCLECIRCLE\DEBUG\ACTIVITY_CIRCLECIRCLE.PDB
